<?xml version="1.0" encoding="UTF-8" standalone="no"?>
<!--
  #%L
  xplan-workspaces - Modul zur Gruppierung aller Workspaces
  %%
  Copyright (C) 2008 - 2023 Freie und Hansestadt Hamburg, developed by lat/lon gesellschaft für raumbezogene Informationssysteme mbH
  %%
  This program is free software: you can redistribute it and/or modify
  it under the terms of the GNU Affero General Public License as published by
  the Free Software Foundation, either version 3 of the License, or
  (at your option) any later version.
  
  This program is distributed in the hope that it will be useful,
  but WITHOUT ANY WARRANTY; without even the implied warranty of
  MERCHANTABILITY or FITNESS FOR A PARTICULAR PURPOSE.  See the
  GNU General Public License for more details.
  
  You should have received a copy of the GNU Affero General Public License
  along with this program.  If not, see <http://www.gnu.org/licenses/>.
  #L%
  -->

<!-- Created with Inkscape (http://www.inkscape.org/) -->

<svg
   version="1.0"
   width="100%"
   height="100%"
   viewBox="-4.5 -3 100 100"
   id="svg2"
   xml:space="preserve"
   xmlns="http://www.w3.org/2000/svg"
   xmlns:svg="http://www.w3.org/2000/svg"><defs
     id="defs4"><style
       type="text/css"
       id="style6" /><style
       type="text/css"
       id="style6-5" /><style
       type="text/css"
       id="style6-54" /><style
       type="text/css"
       id="style6-2" /><style
       type="text/css"
       id="style6-20" /><style
       type="text/css"
       id="style6-3" /></defs><rect
     style="display:inline;fill:#000000;stroke-width:1.02369"
     id="rect333"
     width="99.917465"
     height="61.302216"
     x="-4.2597861"
     y="19.23587" /><path
     d="M 3.3708536,59.922163 V 36.221744 L 43.968789,20.640917 88.077897,36.002295 V 59.702714 L 44.407686,78.794716 Z"
     id="path2385"
     style="fill:#ffffff;fill-rule:evenodd;stroke:none;stroke-width:13.5814px;stroke-linecap:butt;stroke-linejoin:miter;stroke-opacity:1" /></svg>
