{
"schluessel": "HN 9 geaendert",
"gesetzlicheGrundlage": null,
"text": null,
"refText": {
   "georefURL": null,
   "georefMimeType": null,
   "art": null,
   "informationssystemURL": null,
   "referenzName": "test-name",
   "referenzURL": "postText.pdf",
   "referenzMimeType": null,
   "beschreibung": null,
   "datum": null
},
"rechtscharakter": 3000
}

