{
   "georefURL": "postImg.pgw",
   "georefMimeType": null,
   "art": null,
   "informationssystemURL": null,
   "referenzName": "<postImg1>",
   "referenzURL": "postImg.png",
   "referenzMimeType": null,
   "beschreibung": null,
   "datum": null,
   "bereichNummer": "0"
}
